<?xml version="1.0" encoding="UTF-8" standalone="no"?>
<svg xmlns="http://www.w3.org/2000/svg" width="200" height="200" version="1.1">
  <path d="m 0,81 0,38 200,0 0,-38 -200,0 z" />
  <path d="m 81,200 38,0 0,-200 -38,0 0,200 z" />
</svg>
